{
  "extends": "../../tslint.json",
  "rules": {
    "directive-selector": [
      true,
      "attribute",
      "lib",
      "camelCase"
    ],
    "max-line-length": [
      false,
      140
    ],
    "component-selector": [
      true,
      "element",
      "lib",
      "kebab-case"
    ]
  }
}
